tidyverse_ggplot
…
3) dplyr::select

Utilicen comas para seleccionar varias columnas de una base de datos (usen “first:last” para columnas consecutivas). Anulen la selección de una columna con “-”.

top1000 %>% 
  select(title:votes, mpaa, -r1)

# A tibble: 1,000 x 7
   title                                   year length budget rating votes mpaa 
   <chr>                                  <int>  <int>  <int>  <dbl> <int> <chr>
 1 Spider-Man 2                            2004    127 2   e8    7.9 40256 "PG-~
 2 Titanic                                 1997    194 2   e8    6.9 90195 "PG-~
 3 Troy                                    2004    162 1.85e8    7.1 33979 "R"  
 4 Terminator 3: Rise of the Machines      2003    109 1.75e8    6.9 32111 "R"  
 5 Waterworld                              1995    176 1.75e8    5.4 19325 "PG-~
 6 Wild Wild West                          1999    107 1.7 e8    4   19078 "PG-~
 7 Van Helsing                             2004    132 1.6 e8    5.4 19787 "PG-~
 8 Alexander                               2004    175 1.5 e8    5.5 11254 "R"  
 9 Master and Commander: The Far Side of~  2003    138 1.5 e8    7.5 21328 "PG-~
10 Polar Express, The                      2004     99 1.5 e8    6.8  4045 ""   
# i 990 more rows
…
4) dplyr::mutate

Pueden crear nuevas columnas desde cero o (más comúnmente) como transformaciones de columnas existentes.

top1000 %>% 
  select(title, year) %>%
  mutate(dog_years = year * 7) %>%
  mutate(comment = paste0(title, " was in ", dog_years, " in dog years."))

# A tibble: 1,000 x 4
   title                                            year dog_years comment      
   <chr>                                           <int>     <dbl> <chr>        
 1 Spider-Man 2                                     2004     14028 Spider-Man 2~
 2 Titanic                                          1997     13979 Titanic was ~
 3 Troy                                             2004     14028 Troy was in ~
 4 Terminator 3: Rise of the Machines               2003     14021 Terminator 3~
 5 Waterworld                                       1995     13965 Waterworld w~
 6 Wild Wild West                                   1999     13993 Wild Wild We~
 7 Van Helsing                                      2004     14028 Van Helsing ~
 8 Alexander                                        2004     14028 Alexander wa~
 9 Master and Commander: The Far Side of the World  2003     14021 Master and C~
10 Polar Express, The                               2004     14028 Polar Expres~
# i 990 more rows

4) dplyr::mutate cont.

Nota: mutate tiene en cuenta el orden, por lo que puedes encadenar múltiples cambios en una sola llamada.

top1000 %>% 
  select(title, year) %>%
  mutate(
    dog_years = year * 7, ## Separate with a comma
    comment = paste0(title, " was in ", dog_years, " in dog years.")
    )

# A tibble: 1,000 x 4
   title                                            year dog_years comment      
   <chr>                                           <int>     <dbl> <chr>        
 1 Spider-Man 2                                     2004     14028 Spider-Man 2~
 2 Titanic                                          1997     13979 Titanic was ~
 3 Troy                                             2004     14028 Troy was in ~
 4 Terminator 3: Rise of the Machines               2003     14021 Terminator 3~
 5 Waterworld                                       1995     13965 Waterworld w~
 6 Wild Wild West                                   1999     13993 Wild Wild We~
 7 Van Helsing                                      2004     14028 Van Helsing ~
 8 Alexander                                        2004     14028 Alexander wa~
 9 Master and Commander: The Far Side of the World  2003     14021 Master and C~
10 Polar Express, The                               2004     14028 Polar Expres~
# i 990 more rows
…
